{
  "baseUrl": "https://localhost:8443",
  "chromeWebSecurity": false,
  "numTestsKeptInMemory": 50,
  "testFiles": "cypress/integration/*.spec.js",
  "component": {
    "componentFolder": "src",
    "testFiles": "cypress/component/*.spec.js",
    "viewportHeight": 500,
    "viewportWidth": 700
  }
}
